…
 1st Qu.:1105  
 Median :1172  
 Mean   :1219  
 3rd Qu.:1278  
 Max.   :2025  
 NA's   :5     
```
## Question 6: Which school is get highest SAT score ?
*** Please do step 2 on the top of content ***
```
sat_score %>% mutate(total_score = math_score + math_score + writing_score) %>% arrange(desc(total_score))
```
Result:
```
# A tibble: 421 x 6
   DBN    school_name                       math_score reading_score writing_score total_score
   <chr>  <chr>                                  <dbl>         <dbl>         <dbl>       <dbl>
 1 10X445 BRONX HIGH SCHOOL OF SCIENCE             688           632           649        2025
 2 31R605 STATEN ISLAND TECHNICAL HIGH SCH~        682           635           636        2000
 3 25Q525 TOWNSEND HARRIS HIGH SCHOOL              651           621           638        1940
 4 10X696 HIGH SCHOOL OF AMERICAN STUDIES ~        648           636           636        1932
 5 28Q687 QUEENS HIGH SCHOOL FOR THE SCIEN~        660           612           596        1916
 6 13K430 BROOKLYN TECHNICAL HIGH SCHOOL           659           587           587        1905
 7 05M692 HIGH SCHOOL FOR MATHEMATICS, SCI~        654           605           588        1896
 8 01M696 BARD HIGH SCHOOL EARLY COLLEGE           604           624           628        1836
 9 02M416 ELEANOR ROOSEVELT HIGH SCHOOL            594           572           592        1780
10 03M479 BEACON HIGH SCHOOL                       575           577           592        1742
# ... with 411 more rows
```
…
