…
### 5.หาจำนวนของหนังสือที่มีเรทติ้งเท่ากัน เรี่ยงจากจำนวนมากไปน้อย

```
book_dataset %>% group_by(Rating) %>% count() %>% arrange(desc(n))
```

Result:

```
# A tibble: 94 x 2
# Groups:   Rating [94]
   Rating     n
    <dbl> <int>
 1   4.15     9
 2   4.11     8
 3   4        7
 4   4.23     7
 5   4.25     7
 6   3.87     6
 7   3.97     6
 8   4.03     6
 9   4.08     6
10   4.18     6
# ... with 84 more rows
```
//Explain<br>
คล้ายๆกับหา mode แต่หาเอาออกมาเพื่อดูว่าข้อมูลกระจุกกันไหม

### 6.หาชื่อหนังสือ, เรทติ้งและราคา ของหนังสือที่มีเรทติ้งมากกว่า mean rating

```
book_dataset %>% select(Book_title,Rating,Price) %>% filter(Rating > mean(Rating))
```

Result:

```
# A tibble: 147 x 3
   Book_title                                                                                            Rating Price
   <chr>                                                                                                  <dbl> <dbl>
 1 The Elements of Style                                                                                   4.17  9.32
 2 Start with Why: How Great Leaders Inspire Everyone to Take Action                                       4.09 14.2 
 3 Algorithms to Live By: The Computer Science of Human Decisions                                          4.15 14.4 
 4 ZX Spectrum Games Code Club: Twenty fun games to code and learn                                         4.62 14.6 
 5 The Innovators: How a Group of Hackers, Geniuses and Geeks Created the Digital Revolution               4.1  17.2 
 6 Debugging: The 9 Indispensable Rules for Finding Even the Most Elusive Software and Hardware Problems   4.22 17.5 
 7 Help Your Kids with Computer Coding                                                                     4.21 18.9 
 8 The Code Book: The Science of Secrecy from Ancient Egypt to Quantum Cryptography                        4.28 19.1 
 9 Adventures in Minecraft                                                                                 4.37 21.0 
10 Coding Games in Scratch                                                                                 4.25 21.1 
# ... with 137 more rows
```
…
